statisticalTest, C1, C2, C3, C4, C5, C6, C7, C8, C9, C10, pValue, proportion
Frequency,  30.000000,  18.000000,  30.000000,  19.000000,  27.000000,  31.000000,  27.000000,  24.000000,  16.000000,  27.000000,  0.000000,  0.000000
BlockFrequency,  30.000000,  18.000000,  30.000000,  19.000000,  27.000000,  31.000000,  27.000000,  24.000000,  16.000000,  27.000000,  0.000000,  0.000000
CumulativeSums,  30.000000,  18.000000,  30.000000,  19.000000,  27.000000,  31.000000,  27.000000,  24.000000,  16.000000,  27.000000,  0.000000,  0.000000
Runs,  30.000000,  18.000000,  30.000000,  19.000000,  27.000000,  31.000000,  27.000000,  24.000000,  16.000000,  27.000000,  0.000000,  0.000000
LongestRun,  30.000000,  18.000000,  30.000000,  19.000000,  27.000000,  31.000000,  27.000000,  24.000000,  16.000000,  27.000000,  0.000000,  0.000000
Rank,  30.000000,  18.000000,  30.000000,  19.000000,  27.000000,  31.000000,  27.000000,  24.000000,  16.000000,  27.000000,  0.000000,  0.000000
FFT,  30.000000,  18.000000,  30.000000,  19.000000,  27.000000,  31.000000,  27.000000,  24.000000,  16.000000,  27.000000,  0.000000,  0.000000
NonOverlappingTemplate,  30.000000,  18.000000,  30.000000,  19.000000,  27.000000,  31.000000,  27.000000,  24.000000,  16.000000,  27.000000,  0.000000,  1.000000
OverlappingTemplate,  30.000000,  18.000000,  30.000000,  19.000000,  27.000000,  31.000000,  27.000000,  24.000000,  16.000000,  27.000000,  0.000000,  0.000000
Universal,  30.000000,  18.000000,  30.000000,  19.000000,  27.000000,  31.000000,  27.000000,  24.000000,  16.000000,  27.000000,  0.000000,  0.000000
ApproximateEntropy,  30.000000,  18.000000,  30.000000,  19.000000,  27.000000,  31.000000,  27.000000,  24.000000,  16.000000,  27.000000,  0.000000,  0.000000
Serial,  30.000000,  18.000000,  30.000000,  19.000000,  27.000000,  31.000000,  27.000000,  24.000000,  16.000000,  27.000000,  0.000000,  0.000000
LinearComplexity,  30.000000,  18.000000,  30.000000,  19.000000,  27.000000,  31.000000,  27.000000,  24.000000,  16.000000,  27.000000,  0.250878,  0.955800
