statisticalTest, C1, C2, C3, C4, C5, C6, C7, C8, C9, C10, pValue, proportion
Frequency,  8.000000,  7.000000,  8.000000,  8.000000,  5.000000,  9.000000,  11.000000,  10.000000,  11.000000,  9.000000,  0.611108,  0.965100
BlockFrequency,  8.000000,  7.000000,  8.000000,  8.000000,  5.000000,  9.000000,  11.000000,  10.000000,  11.000000,  9.000000,  0.788728,  1.000000
CumulativeSums,  8.000000,  7.000000,  8.000000,  8.000000,  5.000000,  9.000000,  11.000000,  10.000000,  11.000000,  9.000000,  0.122325,  0.965100
Runs,  8.000000,  7.000000,  8.000000,  8.000000,  5.000000,  9.000000,  11.000000,  10.000000,  11.000000,  9.000000,  0.000000,  0.953500
LongestRun,  8.000000,  7.000000,  8.000000,  8.000000,  5.000000,  9.000000,  11.000000,  10.000000,  11.000000,  9.000000,  0.084294,  1.000000
Rank,  8.000000,  7.000000,  8.000000,  8.000000,  5.000000,  9.000000,  11.000000,  10.000000,  11.000000,  9.000000,  0.000001,  0.988400
FFT,  8.000000,  7.000000,  8.000000,  8.000000,  5.000000,  9.000000,  11.000000,  10.000000,  11.000000,  9.000000,  0.098036,  1.000000
NonOverlappingTemplate,  8.000000,  7.000000,  8.000000,  8.000000,  5.000000,  9.000000,  11.000000,  10.000000,  11.000000,  9.000000,  0.162606,  1.000000
OverlappingTemplate,  8.000000,  7.000000,  8.000000,  8.000000,  5.000000,  9.000000,  11.000000,  10.000000,  11.000000,  9.000000,  0.293235,  0.965100
Universal,  8.000000,  7.000000,  8.000000,  8.000000,  5.000000,  9.000000,  11.000000,  10.000000,  11.000000,  9.000000,  0.000000,  1.000000
ApproximateEntropy,  8.000000,  7.000000,  8.000000,  8.000000,  5.000000,  9.000000,  11.000000,  10.000000,  11.000000,  9.000000,  0.000000,  0.662800
Serial,  8.000000,  7.000000,  8.000000,  8.000000,  5.000000,  9.000000,  11.000000,  10.000000,  11.000000,  9.000000,  0.174249,  0.988400
LinearComplexity,  8.000000,  7.000000,  8.000000,  8.000000,  5.000000,  9.000000,  11.000000,  10.000000,  11.000000,  9.000000,  0.894201,  0.965100
