statisticalTest, C1, C2, C3, C4, C5, C6, C7, C8, C9, C10, pValue, proportion
Frequency,  509.000000,  343.000000,  385.000000,  343.000000,  439.000000,  514.000000,  486.000000,  553.000000,  554.000000,  592.000000,  0.000000,  0.000600
BlockFrequency,  509.000000,  343.000000,  385.000000,  343.000000,  439.000000,  514.000000,  486.000000,  553.000000,  554.000000,  592.000000,  0.000000,  0.584400
CumulativeSums,  509.000000,  343.000000,  385.000000,  343.000000,  439.000000,  514.000000,  486.000000,  553.000000,  554.000000,  592.000000,  0.000000,  0.000600
Runs,  509.000000,  343.000000,  385.000000,  343.000000,  439.000000,  514.000000,  486.000000,  553.000000,  554.000000,  592.000000,  0.000000,  0.022900
LongestRun,  509.000000,  343.000000,  385.000000,  343.000000,  439.000000,  514.000000,  486.000000,  553.000000,  554.000000,  592.000000,  0.000000,  0.690100
Rank,  509.000000,  343.000000,  385.000000,  343.000000,  439.000000,  514.000000,  486.000000,  553.000000,  554.000000,  592.000000,  0.000000,  0.991300
FFT,  509.000000,  343.000000,  385.000000,  343.000000,  439.000000,  514.000000,  486.000000,  553.000000,  554.000000,  592.000000,  0.000000,  0.981600
NonOverlappingTemplate,  509.000000,  343.000000,  385.000000,  343.000000,  439.000000,  514.000000,  486.000000,  553.000000,  554.000000,  592.000000,  0.000000,  0.764500
OverlappingTemplate,  509.000000,  343.000000,  385.000000,  343.000000,  439.000000,  514.000000,  486.000000,  553.000000,  554.000000,  592.000000,  0.000000,  0.988800
Universal,  509.000000,  343.000000,  385.000000,  343.000000,  439.000000,  514.000000,  486.000000,  553.000000,  554.000000,  592.000000,  0.000000,  1.000000
ApproximateEntropy,  509.000000,  343.000000,  385.000000,  343.000000,  439.000000,  514.000000,  486.000000,  553.000000,  554.000000,  592.000000,  0.000000,  0.177200
Serial,  509.000000,  343.000000,  385.000000,  343.000000,  439.000000,  514.000000,  486.000000,  553.000000,  554.000000,  592.000000,  0.000000,  0.958200
LinearComplexity,  509.000000,  343.000000,  385.000000,  343.000000,  439.000000,  514.000000,  486.000000,  553.000000,  554.000000,  592.000000,  0.000000,  0.965000
