122.076004
122.608955
123.40265
122.339096
109.044846
114.37385
37.02984
7.379106
36.831722
17.601435
59.646584
3.423926
1.269259
12.40601
-23.533365
34.318295
-16.013327
-1.6998802
-116.157555
-89.59029
-38.667484
-76.47513
-99.88098
-166.90016
-120.56854
-120.29594
-57.826332
-67.23734
-30.378166
-117.8538
-78.30182
-100.60182
-26.152365
-143.56262
-81.89341
-122.35759
39.026
-15.927138
62.848835
33.528694
113.77688
141.8415
4.002053
-71.84667
6.758067
-48.788166
-77.904335
3.1271222
-69.36875
-27.196684
-13.159687
-276.82062
-183.4737
4.5314975
-433.06113
-89.814865
-53.356365
-49.336796
-11.908029
-14.122384
-14.017473
1.258207
-1.0437757
-12.500075
-23.511148
11.287863
11.46845
11.173018
24.43825
27.245056
28.775097
25.928715
25.36729
33.603428
47.391663
49.91596
49.009304
50.289024
49.468353
50.9934
25.171848
4.8007874
-5.7041607
-53.023476
-55.97119
-32.731693
-10.974078
-12.025942
-24.43802
-60.414104
-53.94097
-59.07014
-81.670425
-92.20515
-94.46103
-99.67142
-92.57952
-89.53136
-95.04734
-90.860054
-96.19422
-97.45394
-96.98485
-95.82731
-95.77271
-99.06325
-97.45901
-93.54442
-92.97104
-80.8917
-81.14541
-81.66656
-79.15598
-79.18977
-78.61195
-79.24936
-85.134995
-85.026115
-84.70034
-79.83774
-80.16407
-78.45158
-77.291756
-80.09039
-80.37306
-80.71421
-81.453995
-81.825905
-84.043434
-104.979034
-154.27213
-91.049774
-75.71687
-82.61885
-84.95705
-92.891914
-83.4073
-82.47174
-82.19164
-84.559875
-85.23041
-82.24069
-83.860954
-84.89204
-83.69963
-83.63101
-84.63395
-83.666626
-74.444954
-70.98912
-73.26744
-73.12684
-65.45697
-52.7759
-53.5161
-50.70555
-54.572636
-65.721725
-100.78
-99.28729
-103.144005
-69.70277
-72.47462
-102.08788
-101.751755
-84.03089
-92.11675
-99.10051
-93.03872
-90.69958
-92.5623
-95.34413
-96.18294
-95.99377
-94.87249
-97.57537
-85.201645
-83.59416
-75.46948
-73.1316
-71.50485
-81.90201
-85.54002
-88.50617
-87.213066
-88.067665
-91.57913
-92.78958
-98.17716
-107.154976
-132.77563
-142.67722
-130.49875
-105.229645
-55.42364
-39.51763
-35.481407
-33.356068
-20.834541
-28.157684
-40.676826
-65.21158
-66.86816
-55.034065
-63.705006
-119.16176
-135.53163
-107.69122
-54.25111
-40.683174
-33.62403
-48.647274
-46.14786
-56.46225
-61.179855
-69.320244
-96.50507
-99.8288
-74.684814
-95.14203
-65.74682
-72.144394
-94.348236
-44.442852
41.78635
72.28062
-17.97964
96.41409
-13.707515
115.24891
-7.2748547
162.60985
37.262283
59.09251
43.086834
118.390236
33.325928
211.50218
46.162857
17.75953
16.606295
54.653896
215.68633
242.78091
86.640076
180.6337
1.1906716
86.66463
38.24996
352.78568
56.566654
25.374763
118.92661
5.425062
22.59719
-55.79982
28.92644
-45.663628
18.616283
-128.86926
42.185146
13.751909
25.44519
12.708711
11.395008
-18.49835
250.16548
41.6588
63.06129
32.03532
16.164465
8.264032
5.619522
5.135525
5.1649976
4.9737015
5.5050797
5.5467763
5.4123273
5.1552396
5.069016
5.0617642
5.3663397
5.351008
5.5192504
4.931232
4.8835645
5.733573
5.3008966
5.1626253
5.1552396
5.42861
5.358674
5.5050797
5.2945704
5.2933245
5.0762677
5.1700106
4.7773514
5.104567
5.1118593
5.1157866
3.0111442
4.512661
4.7119083
4.966606
5.1118593
5.1587667
4.825431
4.653103
5.473667
5.828486
5.7048507
5.4603558
5.1699605
5.4744663
5.913263
4.9347687
4.647299
4.779358
4.982472
5.2469506
4.857177
-0.51029
-5.520521
-19.65323
-12.637643
-3.612463
-1.474973
-3.2172573
-3.3620105
-8.654174
-3.61967
-8.065322
-2.0346937
-9.724768
-5.3097615
-3.9978075
-2.0987096
-0.92749405
-3.209192
-2.1793284
-2.3127267
-3.0393174
-4.357606
-3.7654185
-3.4535804
-3.1022186
-3.138695
-3.1996408
-3.819006
-3.9106722
-3.836183
-2.817038
-3.1786282
-3.1633463
-3.1633463
-1.9648113
-1.8220441
-0.6004853
-0.60987973
-1.2453307
-0.29252335
-0.9405169
0.5979939
0.6082425
0.5971197
0.5790129
0.28778318
0.2803949
-0.29035544
0.587624
0.5816053
1.2789465
1.2407418
1.7914273
2.634707
0.8542608
2.60762
2.4265418
2.4804378
2.496038
1.1081474
1.9541683
1.4258527
1.0739756
0.41641563
1.270305
1.6656777
4.39863
-2.8232636
-2.4776433
-0.651526
0.30980647
1.8885233
3.2645783
0.3250176
0.65345645
1.8745756
-0.6486303
0.3156837
-0.325763
-0.32431516
-0.33038953
0.6627398
0.6631996
0.65105605
0.651526
0.651526
0.6705626
0.65834826
0.6685816
0.6685816
0.66561013
-0.34060773
0.6593236
0.33599636
0.34281865
0.33770195
-0.33991033
-0.3342908
-0.33209252
0.6774051
0.6754039
0.6700017
0.65834826
-0.6549371
0.33689338
-0.6631996
-0.6744033
0.33549863
-1.0050025
-1.0073296
-0.3203582
0.31179246
0.91102207
1.211391
1.801456
1.5056351
1.2302306
1.214696
1.5228424
0.9020545
1.1992018
0.91370547
1.2131698
1.216485
1.1872452
1.5034242
1.2320396
0.92402977
1.1803825
1.4884279
0.607348
1.2182739
1.1958666
0.607348
1.2009706
0.8943681
1.1735198
0.900728
1.211391
1.1855978
1.214696
0.92509854
1.2179607
1.801456
2.675236
1.2045081
1.1993839
1.4884279
1.7705739
0.89558095
1.4626169
2.032488
2.140876
2.0386078
1.1752481
2.0506704
0.5944969
1.7844054
2.428677
1.8618406
2.187217
1.8384327
2.7193484
2.284275
2.8368354
2.7878337
2.350269
2.318932
2.2809548
-28.593288
12.201897
61.803623
86.22107
100.1899
93.85662
90.82681
87.08753
94.91975
91.62257
98.799194
95.57602
90.31537
84.02638
96.96742
113.17175
107.92387
100.067154
100.400154
99.708176
96.39186
95.95557
95.62373
96.21059
96.62356
91.29407
79.96727
79.57367
74.89286
78.28631
77.20235
73.66788
71.51913
73.57399
75.528496
79.02891
77.94054
79.08272
78.751755
79.36354
80.60733
66.37353
